<?xml version="1.0" encoding="UTF-8" standalone="no"?>
<!-- Created with Inkscape (http://www.inkscape.org/) -->

<svg
   sodipodi:docname="border-horizontal.svg"
   inkscape:version="1.1 (ce6663b3b7, 2021-05-25)"
   id="svg8"
   version="1.1"
   viewBox="0 0 135.46666 2.6458337"
   height="10"
   width="512"
   inkscape:export-filename="/home/fic/Pictures/panda_siili/border.png"
   inkscape:export-xdpi="96"
   inkscape:export-ydpi="96"
   xmlns:inkscape="http://www.inkscape.org/namespaces/inkscape"
   xmlns:sodipodi="http://sodipodi.sourceforge.net/DTD/sodipodi-0.dtd"
   xmlns="http://www.w3.org/2000/svg"
   xmlns:svg="http://www.w3.org/2000/svg"
   xmlns:rdf="http://www.w3.org/1999/02/22-rdf-syntax-ns#"
   xmlns:cc="http://creativecommons.org/ns#"
   xmlns:dc="http://purl.org/dc/elements/1.1/">
  <sodipodi:namedview
     inkscape:snap-page="true"
     inkscape:window-maximized="1"
     inkscape:window-y="27"
     inkscape:window-x="66"
     inkscape:window-height="1016"
     inkscape:window-width="1854"
     units="px"
     showgrid="false"
     inkscape:current-layer="layer1"
     inkscape:document-units="px"
     inkscape:cy="113.07415"
     inkscape:cx="346.51755"
     inkscape:zoom="1.2337037"
     inkscape:pageshadow="2"
     inkscape:pageopacity="0.0"
     borderopacity="1.0"
     bordercolor="#666666"
     pagecolor="#ffffff"
     id="base"
     inkscape:snap-bbox="true"
     inkscape:snap-bbox-midpoints="true"
     inkscape:snap-object-midpoints="true"
     showguides="true"
     inkscape:guide-bbox="true"
     inkscape:snap-to-guides="true"
     fit-margin-top="0"
     fit-margin-left="0"
     fit-margin-right="0"
     fit-margin-bottom="0"
     inkscape:pagecheckerboard="0"
     height="7px" />
  <defs
     id="defs2" />
  <metadata
     id="metadata5">
    <rdf:RDF>
      <cc:Work
         rdf:about="">
        <dc:format>image/svg+xml</dc:format>
        <dc:type
           rdf:resource="http://purl.org/dc/dcmitype/StillImage" />
      </cc:Work>
    </rdf:RDF>
  </metadata>
  <g
     inkscape:groupmode="layer"
     id="layer3"
     inkscape:label="bottom" />
  <g
     inkscape:groupmode="layer"
     id="layer2"
     inkscape:label="top"
     style="display:none">
    <path
       transform="translate(0.07755,-292.61192)"
       sodipodi:nodetypes="ccssssssssssssc"
       inkscape:connector-curvature="0"
       id="path916"
       d="m -0.07755,293.93991 c 2.0552455,0 3.3040959,-0.24998 9.3603999,-0.24998 2.7575441,0 6.4861501,0.0908 10.1421921,0.0908 2.983451,0 6.266455,0.43315 9.713129,0.43315 3.079067,0 6.004653,-0.33912 9.361677,-0.33912 3.134582,0 6.253323,-0.21897 9.55728,-0.21897 3.174071,0 6.852581,0.45813 10.119214,0.45813 3.205938,0 6.334993,-0.13074 9.570465,-0.13074 3.234964,0 6.310524,-0.077 9.515976,-0.077 3.266538,0 6.587145,-0.0349 9.761146,-0.0349 3.304283,0 6.624771,0.15238 9.759669,0.15238 3.357012,0 6.605332,0.17611 9.684412,0.17611 3.44718,0 6.43431,-0.18286 9.41816,-0.18286 3.65617,0 6.82132,-0.11228 9.57896,-0.11228 6.05648,0 7.91041,0.0671 10.00154,0.0671 l -1e-5,-1.35981 H -0.07755 Z"
       style="fill:#ffffff;stroke:none;stroke-width:1.32292;stroke-linecap:butt;stroke-linejoin:miter;stroke-miterlimit:4;stroke-dasharray:none;stroke-opacity:1" />
  </g>
  <g
     inkscape:label="line"
     inkscape:groupmode="layer"
     id="layer1"
     transform="translate(0.07755,-292.61192)">
    <path
       style="fill:#ffffff;stroke:#000000;stroke-width:1.33395;stroke-linecap:round;stroke-linejoin:round;stroke-miterlimit:4;stroke-dasharray:none;stroke-opacity:1"
       d="m 0.58942606,293.86913 c 1.16849854,-0.0723 2.72753704,-0.17436 6.77995864,-0.17436 2.8602063,0 6.7276293,0.089 10.5197853,0.089 3.094525,0 6.499754,0.42459 10.074748,0.42459 3.1937,0 6.228204,-0.33242 9.710211,-0.33242 3.251284,0 6.486132,-0.21465 9.913096,-0.21465 3.292242,0 7.107703,0.44908 10.495952,0.44908 3.325295,0 6.570844,-0.12816 9.926773,-0.12816 3.355399,0 6.545465,-0.0755 9.870255,-0.0755 3.38815,0 6.832384,-0.0342 10.124551,-0.0342 3.427302,0 6.871412,0.14938 10.123021,0.14938 3.481993,0 6.851243,0.17263 10.044963,0.17263 3.57552,0 6.67386,-0.17925 9.76879,-0.17925 3.7923,0 7.07528,-0.11007 9.93559,-0.11007 3.7064,0 5.52848,0.031 6.84503,0.0563"
       id="path827-3"
       inkscape:connector-curvature="0"
       sodipodi:nodetypes="csssssssssssssc" />
  </g>
</svg>
